[
    {"type":"settings","offsetLeft":10, "position":"label-left", "labelWidth":120, "inputWidth":200, "labelAlign":"top"},
    {"type":"fieldset", "label":"<b>Tipos de Habitación:</b>","name":"title","validation":"Empty", "inputWidth":"auto", "list":[
        {"type":"input", "label":"<b>ITEMID:</b>", "name":"itemid","hidden":true},
        {"type":"input", "label":"<b>Id:</b>", "name":"itemid", "readonly":"true", "hidden":true},
        {
            "type":"container", 
            "name":"uploading", 
            "label":"<b>Foto:</b>"
        },
        {
            "type":"container", 
            "name":"input1", 
            "label":"<b>Numero personas:</b>",
            "required":true
        },
        {
            "type":"container", 
            "name":"input2", 
            "label":"<b>Número camas Individuales:</b>",
            "required":true
        },
        {
            "type":"container", 
            "name":"input3", 
            "label":"<b>Número camas Queen Size:</b>",
            "required":true
        },
        // {
        //     "type":"container", 
        //     "name":"input4", 
        //     "label":"<b>Número camas King Size:</b>",
        //     "required":true
        // },
        {"type":"input","value":1, "name":"numeropersonas","hidden":true},
        {"type":"input","value":1, "name":"numerocamasind","hidden":true},
        {"type":"input","value":1, "name":"numerocamasqueen","hidden":true},
        // {"type":"input","value":1, "name":"numerocamasking","hidden":true},
        {"type":"input", "label":"<b>Nombre:</b>", "name":"nombre","validation":"Empty","required":true}, 
        {"type":"input", "label":"<b>Tarifa:</b>", "name":"tarifa","validation":"Empty","required":true},        
        {"type":"button", "name":"enviar", "value":"<b>Guardar</b>", "width":300}
    ]}
]