[
    {type:"settings",offsetLeft:10, position:"label-left", labelWidth:120, inputWidth:200, labelAlign:"top"},
    {type:"fieldset", label:"<b>Cliente:</b>",name:"title", inputWidth:"auto", list:[
        {type:"input", label:"<b>ITEMID:</b>", name:"itemid",hidden:true},
        {type:"input", label:"<b>Nombre:</b>", name:"nombre"},
        // {type:"input", label:"<b>Empresa:</b>", name:"empresa"},
        {type: "combo", label: "<b>Empresa:</b>", name: "empresa", connector:"../../../node_hotel/datos_cat?instruccion=combo_empresa" , readonly:true},
        {type:"input", label:"<b>Usuario:</b>", name:"usuariocrea",hidden:true,value:nombreusuario},
        {type:"input", label:"<b>Correo:</b>", name:"correo", validate: "ValidEmail"},
        {type:"input", label:"<b>Dirección:</b>", name:"direccion"},
        {type:"input", label:"<b>RFC:</b>", name:"rfc",validate:"rfcValido",required:true},
        {type: "combo", label: "<b>Estado:</b>", name: "estado", readonly:true},
        // {type:"input", label:"<b>Ciudad:</b>", name:"ciudad"},
        {type: "combo", label: "<b>Ciudad:</b>", name: "ciudad", readonly:true},
        {type:"input", label:"<b>Teléfono:</b>", name:"telefono"},
        {type:"btn2state", label:"<b>Activo:</b>", name:"activo"},
        {type:"input", label:"<b>Edad:</b>", name:"edad",validate:"ValidInteger"},    
        {type:"button", name:"enviar", value:"<b>Agregar</b>", width:300}
    ]}
]